1	76ers	Philadelphia	1	1000000000
2	Bucks	Milwaukee	1	1000000000
3	Cavaliers	Cleveland	1	1000000000
4	Heat	Miami	1	1000000000
5	Hornets	Charlotte	1	1000000000
6	Jazz	Utah	1	1000000000
7	Knicks	New York	1	1000000000
8	Mavericks	Dallas	1	1000000000
9	Nets	Brooklyn	1	1000000000
10	Nuggets	Denver	1	1000000000
11	Pacers	Indiana	1	1000000000
12	Pelicans	New Orleans	1	1000000000
13	Bulls	Chicago	1	1000000000
14	Rockets	Houston	1	1000000000
15	Spurs	San Antonio	1	1000000000
16	Suns	Phoenix	1	1000000000
17	Trail Blazers	Portland	1	1000000000
18	Warriors	Golden State	1	1000000000
19	Celtics	Boston	1	1000000000
20	Clippers	LA	1	1000000000
21	Grizzlies	Memphis	1	1000000000
22	Hawks	Atlanta	1	1000000000
23	Kings	Sacramento	1	1000000000
24	Lakers	Los Angeles	1	1000000000
25	Magic	Orlando	1	1000000000
26	Pistons	Detroit	1	1000000000
27	Raptors	Toronto	1	1000000000
28	Thunder	Oklahoma City	1	1000000000
29	Timberwolves	Minnesota	1	1000000000
30	Wizards	Washington	1	1000000000
