2	Aaron Brooks	0
3	Aaron Gordon	0
4	Aaron McKie	0
5	Abdel Nader	0
6	Adrian Caldwell	0
7	Al Jefferson	0
8	Al-Farouq Aminu	0
9	Aaron Harrison	0
10	Aaron Jackson	0
11	Adam Keefe	0
12	Adreian Payne	0
13	Al Horford	0
14	Alan Williams	0
15	Alec Burks	0
16	Alec Peters	0
17	Alan Henderson	0
18	Alex Abrines	0
19	Alex Poythress	0
20	Alfonzo McKinnie	0
21	Allen Crabbe	0
22	Alonzo Mourning	0
23	Alex Caruso	0
24	Alex Len	0
25	Allan Houston	0
26	Amir Johnson	0
27	Andre Drummond	0
28	Andre Ingram	0
29	Andrew DeClercq	0
30	Andrew Harrison	0
31	Alton Lister	0
32	Andre Iguodala	0
33	Andre Roberson	0
34	Andrew Bogut	0
35	Andrew Lang	0
36	Andrew Wiggins	0
37	Anthony Bonner	0
38	Andrew White III	0
39	Andy Toolson	0
40	Anfernee Hardaway	0
41	Ante Zizic	0
42	Anthony Avent	0
43	Anthony Miller	0
44	Anthony Peeler	0
45	Anthony Brown	0
46	Anthony Davis	0
47	Anthony Mason	0
48	Anthony Tolliver	0
49	Antonius Cleveland	0
50	Austin Rivers	0
51	Avery Bradley	0
52	Avery Johnson	0
53	Bam Adebayo	0
54	Ben McLemore	0
55	Anthony Tucker	0
56	Ben Moore	0
57	Ben Simmons	0
58	Bismack Biyombo	0
59	Bison Dele	0
60	Blake Griffin	0
61	Bob Sura	0
62	Bobby Hurley	0
63	Bogdan Bogdanovic	0
64	Antoine Carr	0
65	Antonio Blakeney	0
66	Antonio Davis	0
67	Antonio Lang	0
68	Antonio McDyess	0
69	Armen Gilliam	0
70	Aron Baynes	0
71	Arron Afflalo	0
72	Bradley Beal	0
73	Brandan Wright	0
74	Brandon Ingram	0
75	Brandon Jennings	0
76	Brandon Paul	0
77	Briante Weber	0
78	Brice Johnson	0
79	Arvydas Sabonis	0
80	B.J. Tyler	0
81	Benoit Benjamin	0
82	Billy Owens	0
83	Boban Marjanovic	0
84	Brook Lopez	0
85	Brooks Thompson	0
86	Bryant Stith	0
87	Cameron Payne	0
88	Caris LeVert	0
89	Carl Herrera	0
90	Carlos Rogers	0
91	Carmelo Anthony	0
92	Cedi Osman	0
93	Cedric Ceballos	0
94	Charles Cooke	0
95	Charlie Ward	0
96	Cheick Diallo	0
97	Chris Gatling	0
98	Chris McCullough	0
99	Chris Mills	0
100	Chris Morris	0
101	Bobby Brown	0
102	Bobby Phills	0
103	CJ Miles	0
104	Cody Zeller	0
105	Corey Brewer	0
106	Cristiano Felicio	0
107	Bobby Portis	0
108	Bojan Bogdanovic	0
109	Brad Lohaus	0
110	Brian Grant	0
111	Brian Shaw	0
112	Bruno Caboclo	0
113	Bryn Forbes	0
114	Buck Williams	0
115	Buddy Hield	0
116	C.J. Williams	0
117	Calbert Cheaney	0
118	Dakari Johnson	0
119	Dale Ellis	0
120	Damian Jones	0
121	Damian Lillard	0
122	Damyean Dotson	0
123	Dan Schayes	0
124	Daniel Hamilton	0
125	Caleb Swanigan	0
126	Chandler Parsons	0
127	Channing Frye	0
128	Charles Jones	0
129	Charles Smith	0
130	Cherokee Parks	0
131	Chinanu Onuaku	0
132	Chris Boucher	0
133	Chris Childs	0
134	Chris King	0
135	Chris Paul	0
136	Chris Whitney	0
137	Chuck Person	0
138	Chucky Brown	0
139	CJ McCollum	0
140	Clifford Robinson	0
141	Clifford Rozier	0
142	Clint Capela	0
143	Clyde Drexler	0
144	Cole Aldrich	0
145	Cory Joseph	0
146	Courtney Lee	0
147	Craig Ehlo	0
148	Daniel Theis	0
149	Danny Green	0
150	Danny Manning	0
151	Dario Saric	0
152	Darren Collison	0
153	Darrick Martin	0
154	Darryl Johnson	0
155	D'Angelo Russell	0
156	D.J. Augustin	0
157	D.J. Wilson	0
158	Damien Wilkins	0
159	Damion Lee	0
160	Dan Majerle	0
161	Dana Barros	0
162	Danilo Gallinari	0
163	Dante Cunningham	0
164	Dante Exum	0
165	Danuel House	0
166	Darius Miller	0
167	Darrell Armstrong	0
168	Darrell Arthur	0
169	Darrin Hancock	0
170	Darrun Hilliard	0
171	David Nwaba	0
172	David Stockton	0
173	Davis Bertans	0
174	Davon Reed	0
175	DeAndre Jordan	0
176	DeAndre Liggins	0
177	David Benoit	0
178	David Vaughn	0
179	David Wesley	0
180	David West	0
181	De'Aaron Fox	0
182	DeAndre' Bembry	0
183	Dee Brown	0
184	DeMar DeRozan	0
185	DeMarcus Cousins	0
186	Dejounte Murray	0
187	Dennis Rodman	0
188	Dennis Schroder	0
189	Dennis Smith Jr.	0
190	Derek Strong	0
191	Derrick Jones Jr.	0
192	Derrick McKey	0
193	Derrick Phelps	0
194	Derrick Walton Jr.	0
195	Derrick White	0
196	Devin Robinson	0
197	Dewayne Dedmon	0
198	Dell Curry	0
199	Delon Wright	0
200	DeMarre Carroll	0
201	Demetrius Jackson	0
202	Dennis Scott	0
203	Denzel Valentine	0
204	Derek Harper	0
205	Derrick Alston	0
206	Deyonta Davis	0
207	Derrick Favors	0
208	Derrick Rose	0
209	Derrick Williams	0
210	Detlef Schrempf	0
211	Dickey Simpkins	0
212	Dillon Brooks	0
213	Dion Waiters	0
214	Doc Rivers	0
215	Domantas Sabonis	0
216	Donnie Boyce	0
217	Donny Marshall	0
218	Dorian Finney-Smith	0
219	Devin Booker	0
220	Devin Harris	0
221	Dikembe Mutombo	0
222	Dino Radja	0
223	Dirk Nowitzki	0
224	Don Reid	0
225	Donald Royal	0
226	Donovan Mitchell	0
227	Doug Edwards	0
228	Doug Smith	0
229	Doug West	0
230	Dragan Bender	0
231	Draymond Green	0
232	Duane Causwell	0
233	Dwayne Morton	0
234	Dwayne Schintzius	0
235	Ed Davis	0
236	Ed Pinckney	0
237	Eddie Jones	0
238	Edmond Sumner	0
239	Eldridge Recasner	0
240	Eric Bledsoe	0
241	Eric Moreland	0
242	Doug Christie	0
243	Doug McDermott	0
244	Doug Overton	0
245	Duane Ferrell	0
246	Dwayne Bacon	0
247	Dwight Buycks	0
248	Dwight Howard	0
249	Dwight Powell	0
250	Dwyane Wade	0
251	E'Twaun Moore	0
252	Eddie Johnson	0
253	Ekpe Udoh	0
254	Elfrid Payton	0
255	Emeka Okafor	0
256	Emmanuel Mudiay	0
257	Enes Kanter	0
258	Eric Gordon	0
259	Eric Leckner	0
260	Eric Montross	0
261	Eric Snow	0
262	Evan Turner	0
263	Frank Mason	0
264	Frankie King	0
265	Fred Roberts	0
266	Garrett Temple	0
267	Gary Grant	0
268	Gary Payton II	0
269	Gary Trent	0
270	George Hill	0
271	George Lynch	0
272	George McCloud	0
273	George Zidek	0
274	Georges Niang	0
275	Gheorghe Muresan	0
276	Giannis Antetokounmpo	0
277	Goran Dragic	0
278	Gordon Hayward	0
279	Gorgui Dieng	0
280	Greg Anderson	0
281	Greg Graham	0
282	Greg Grant	0
283	Greg Monroe	0
284	Greg Sutton	0
285	Hakeem Olajuwon	0
286	Harold Miner	0
287	Harrison Barnes	0
288	Harvey Grant	0
289	Hassan Whiteside	0
290	Hot Rod Williams	0
291	Ian Clark	0
292	Ian Mahinmi	0
293	Iman Shumpert	0
294	Isaiah Canaan	0
295	Isaiah Rider	0
296	Ish Smith	0
297	Ivica Zubac	0
298	J.R. Reid	0
299	Jacob Wiley	0
300	Jahlil Okafor	0
301	Jamal Crawford	0
302	Jamal Mashburn	0
303	Jameel Warney	0
304	James Ennis III	0
305	Eric Piatkowski	0
306	Eric Riley	0
307	Eric Williams	0
308	Erik McCree	0
309	Ersan Ilyasova	0
310	Evan Fournier	0
311	Felton Spencer	0
312	James Robinson	0
313	James Webb III	0
314	James Young	0
315	Jamil Wilson	0
316	JaMychal Green	0
317	Frank Kaminsky	0
318	Frank Ntilikina	0
319	Fred Hoiberg	0
320	Fred VanVleet	0
321	Furkan Korkmaz	0
322	Gary Harris	0
323	Gary Payton	0
324	Jared Dudley	0
325	Jarell Eddie	0
326	Georgios Papagiannis	0
327	Gerald Green	0
328	Gian Clavell	0
329	Glenn Robinson	0
330	Glenn Robinson III	0
331	Grant Hill	0
332	Greg Foster	0
333	Guerschon Yabusele	0
334	Henry Ellenson	0
335	Horace Grant	0
336	Howard Eisley	0
337	Hubert Davis	0
338	Ike Anigbogu	0
339	Isaiah Hicks	0
340	Isaiah Taylor	0
341	Jarell Martin	0
342	Jarrett Allen	0
343	Jarrett Jack	0
344	Jason Caffey	0
345	Jason Kidd	0
346	Jason Smith	0
347	JaVale McGee	0
348	Jaylen Morris	0
349	Jayson Williams	0
350	Jeff Grayer	0
351	Jeff Withey	0
352	Isaiah Thomas	0
353	Isaiah Whitehead	0
354	Ivan Rabb	0
355	J.J. Barea	0
356	Jabari Bird	0
357	Jabari Parker	0
358	Jack Cooley	0
359	Jacob Pullen	0
360	Jae Crowder	0
361	JaKarr Sampson	0
362	Jake Layman	0
363	Jakob Poeltl	0
364	Jalen Jones	0
365	Jalen Rose	0
366	Jamal Murray	0
367	Jameer Nelson	0
368	Jamel Artis	0
369	James Edwards	0
370	Jeremy Lamb	0
371	Jeremy Lin	0
372	Jerryd Bayless	0
373	Jim McIlvaine	0
374	Jimmy King	0
375	JJ Redick	0
376	Joe Harris	0
377	Joe Ingles	0
378	James Harden	0
379	James Johnson	0
380	James Michael McAdoo	0
381	Jamie Watson	0
382	Jason Terry	0
383	Jawun Evans	0
384	Jaylen Brown	0
385	Jayson Tatum	0
386	Jeff Green	0
387	Jeff Hornacek	0
388	Jeff Malone	0
389	Jeff Teague	0
390	Jerami Grant	0
391	Jeremy Evans	0
392	Jerian Grant	0
393	Jimmy Butler	0
394	Joakim Noah	0
395	Jodie Meeks	0
396	Joe Johnson	0
397	Joe Kleine	0
398	Joe Smith	0
399	Joe Wolf	0
400	Joe Young	0
401	Joel Embiid	0
402	John Amaechi	0
403	John Collins	0
404	Joe Dumars	0
405	Joel Bolomboy	0
406	Joffrey Lauvergne	0
407	John Battle	0
408	John Coker	0
409	John Holland	0
410	John Starks	0
411	John Stockton	0
412	John Wall	0
413	Johnathan Motley	0
414	John Crotty	0
415	John Henson	0
416	Jon Barry	0
417	Jon Leuer	0
418	Jonas Jerebko	0
419	Jonathan Gibson	0
420	Jonathon Simmons	0
421	Jordan Clarkson	0
422	Jordan Crawford	0
423	Johnny Newman	0
424	Johnny O'Bryant III	0
425	Jon Koncak	0
426	Jonas Valanciunas	0
427	Jonathan Isaac	0
428	Jordan Bell	0
429	Jordan Mickey	0
430	Jose Calderon	0
431	Josh Gray	0
432	Josh McRoberts	0
433	Josh Smith	0
434	JR Smith	0
435	Jrue Holiday	0
436	Juancho Hernangomez	0
437	Jud Buechler	0
438	Julius Randle	0
439	Julyan Stone	0
440	Junior Burrough	0
441	Justin Anderson	0
442	Justin Jackson	0
443	Josh Hart	0
444	Josh Huestis	0
445	Justise Winslow	0
446	Juwan Howard	0
447	Kadeem Allen	0
448	Karl-Anthony Towns	0
449	Kawhi Leonard	0
450	Kay Felder	0
451	Keith Jennings	0
452	Josh Jackson	0
453	Josh Magette	0
454	Josh Richardson	0
455	Justin Holiday	0
456	Justin Patton	0
457	Jusuf Nurkic	0
458	Keith Askins	0
459	Kelly Olynyk	0
460	Kendrick Perkins	0
461	Kenny Anderson	0
462	Kevin Edwards	0
463	Kevin Johnson	0
464	Kevin Love	0
465	Kevin Pritchard	0
466	Kevon Looney	0
467	Khris Middleton	0
468	Klay Thompson	0
469	Kris Dunn	0
470	Kristaps Porzingis	0
471	Kyrie Irving	0
472	LaMarcus Aldridge	0
473	Lamond Murray	0
474	Lance Thomas	0
475	LaPhonso Ellis	0
476	Larry Nance Jr.	0
477	Latrell Sprewell	0
478	Lauri Markkanen	0
479	LeBron James	0
480	Ledell Eackles	0
481	Lee Mayberry	0
482	Lindsey Hunter	0
483	Lorenzo Brown	0
484	Lou Roe	0
485	Lou Williams	0
486	Luc Mbah a Moute	0
487	Lucas Nogueira	0
488	Kelly Oubre Jr.	0
489	Kemba Walker	0
490	Ken Norman	0
491	Kenneth Faried	0
492	Kenny Smith	0
493	Kent Bazemore	0
494	Kentavious Caldwell-Pope	0
495	Kevin Duckworth	0
496	Kevin Durant	0
497	Kevin Gamble	0
498	Khalid Reeves	0
499	Khem Birch	0
500	Kobi Simmons	0
501	Kosta Koufos	0
502	Kyle Anderson	0
503	Kyle Collinsworth	0
504	Lucious Harris	0
505	Kyle Korver	0
506	Kyle Kuzma	0
507	Kyle Lowry	0
508	Kyle O'Quinn	0
509	Kyle Singler	0
510	Lance Stephenson	0
511	Langston Galloway	0
512	Larry Drew II	0
513	London Perrantes	0
514	Lonzo Ball	0
515	Loren Meyer	0
516	Lorenzo Williams	0
517	Luke Babbitt	0
518	Malachi Richardson	0
519	Malcolm Delaney	0
520	Malcolm Miller	0
521	Malik Monk	0
522	Mangok Mathiang	0
523	Marcin Gortat	0
524	Marcus Morris	0
525	Marcus Smart	0
526	Mario Chalmers	0
527	Mario Hezonja	0
528	Mark Davis	0
529	Mark Jackson	0
530	Markelle Fultz	0
531	Markieff Morris	0
532	Marques Bragg	0
533	Luc Longley	0
534	Luis Montero	0
535	Luke Kennard	0
536	Luke Kornet	0
537	Luol Deng	0
538	Mahmoud Abdul-Rauf	0
539	Malcolm Brogdon	0
540	Malik Beasley	0
541	Manu Ginobili	0
542	Marc Gasol	0
543	Marco Belinelli	0
544	Marcus Georges-Hunt	0
545	Marcus Paige	0
546	Mario Bennett	0
547	Mark Bryant	0
548	Markel Brown	0
549	Marquese Chriss	0
550	Marquis Teague	0
551	Marreese Speights	0
552	Mason Plumlee	0
553	Matt Bullard	0
554	Matthew Dellavedova	0
555	Maxi Kleber	0
556	Melvin Booker	0
557	Meyers Leonard	0
558	Michael Curry	0
559	Michael Finley	0
560	Mike Muscala	0
561	Miles Plumlee	0
562	Milos Teodosic	0
563	Mindaugas Kuzminskas	0
564	Mirza Teletovic	0
565	Mookie Blaylock	0
566	Marshall Plumlee	0
567	Myke Henry	0
568	Nate McMillan	0
569	MarShon Brooks	0
570	Martin Lewis	0
571	Marty Conlon	0
572	Marvin Williams	0
573	Matt Costello	0
574	Matt Williams Jr.	0
575	Maurice Harkless	0
576	Michael Adams	0
577	Michael Beasley	0
578	Michael Carter-Williams	0
579	Michael Kidd-Gilchrist	0
580	Michael Smith	0
581	Micheal Williams	0
582	Mike Conley	0
583	Mike James	0
584	Mike Scott	0
585	Milton Doyle	0
586	Mitchell Butler	0
587	Naz Mitrou-Long	0
588	Nemanja Bjelica	0
589	Nene	0
590	Nerlens Noel	0
591	Nick Van Exel	0
592	Nick Young	0
593	Nicolas Batum	0
594	Nik Stauskas	0
595	Nikola Jokic	0
596	Nikola Mirotic	0
597	Noah Vonleh	0
598	Okaro White	0
599	Olden Polynice	0
600	Omari Johnson	0
601	Omri Casspi	0
602	Otto Porter Jr.	0
603	P.J. Brown	0
604	Patrick Ewing	0
605	Patrick Patterson	0
606	Pete Chilcutt	0
607	Pooh Richardson	0
608	Quinn Cook	0
609	Rajon Rondo	0
610	Ramon Sessions	0
611	Reggie Jordan	0
612	Reggie Williams	0
613	Richard Dumas	0
614	Monte Morris	0
615	Montrezl Harrell	0
616	Muggsy Bogues	0
617	Myles Turner	0
618	Nate Wolters	0
619	Nick Collison	0
620	Nicolas Brussino	0
621	Richard Jefferson	0
622	Richard Manning	0
623	Rick Mahorn	0
624	Ricky Rubio	0
625	Rik Smits	0
626	Robert Covington	0
627	Robert Parish	0
628	Robert Werdann	0
629	Robin Lopez	0
630	Rodney McGruder	0
631	Ron Baker	0
632	Ron Harper	0
633	Nigel Hayes	0
634	Nikola Vucevic	0
635	Norman Powell	0
636	OG Anunoby	0
637	Omer Asik	0
638	Pascal Siakam	0
639	Pat Connaughton	0
640	Patrick Beverley	0
641	Patrick McCaw	0
642	Patty Mills	0
643	Pau Gasol	0
644	Paul George	0
645	Paul Millsap	0
646	Paul Zipser	0
647	Pervis Ellison	0
648	PJ Dozier	0
649	PJ Tucker	0
650	Rudy Gay	0
651	Rudy Gobert	0
652	Russell Westbrook	0
653	Ryan Anderson	0
654	Salah Mejri	0
655	Sam Dekker	0
656	Sam Mitchell	0
657	Sasha Danilovic	0
658	Scott Burrell	0
659	Scotty Hopson	0
660	Sean Rooks	0
661	Sedale Threatt	0
662	Semi Ojeleye	0
663	Shabazz Muhammad	0
664	Shabazz Napier	0
665	Shane Larkin	0
666	Sharone Wright	0
667	Shawn Kemp	0
668	Shawn Respert	0
669	Shelvin Mack	0
670	Sherman Douglas	0
671	Spencer Dinwiddie	0
672	Stacey King	0
673	Stanley Johnson	0
674	Popeye Jones	0
675	Quincy Acy	0
676	Quincy Pondexter	0
677	Randolph Keys	0
678	Rashad Vaughn	0
679	Rastko Cvetkovic	0
680	Raul Neto	0
681	Raymond Felton	0
682	Reggie Bullock	0
683	Reggie Hearn	0
684	Reggie Jackson	0
685	Reggie Miller	0
686	Rex Chapman	0
687	Richaun Holmes	0
688	Stefano Rusconi	0
689	Sterling Brown	0
690	Steve Colter	0
691	Steven Adams	0
692	Steven Smith	0
693	Taj Gibson	0
694	Tarik Black	0
695	Taurean Prince	0
696	Terrance Ferguson	0
697	Terry Cummings	0
698	Terry Mills	0
699	Theo Ratliff	0
700	Thomas Bryant	0
701	Tim Frazier	0
702	Tim Quarterman	0
703	Timofey Mozgov	0
704	Rick Fox	0
705	RJ Hunter	0
706	Rodney Hood	0
707	Rodney Purvis	0
708	Rondae Hollis-Jefferson	0
709	Ronnie Grandison	0
710	Royce O'Neale	0
711	Ryan Arcidiacono	0
712	Sam Cassell	0
713	Sam Perkins	0
714	Sarunas Marciulionis	0
715	Scott Brooks	0
716	Scott Haskin	0
717	Scott Williams	0
718	TJ Warren	0
719	Tony Allen	0
720	Tony Dumas	0
721	Tony Parker	0
722	Tony Smith	0
723	Torrey Craig	0
724	Travis Wear	0
725	Treveon Graham	0
726	Trevor Booker	0
727	Trevor Ruffin	0
728	Trey Lyles	0
729	Troy Williams	0
730	Sean Kilpatrick	0
731	Serge Ibaka	0
732	Shaquille Harrison	0
733	Shaquille O'Neal	0
734	Shaun Livingston	0
735	Sindarius Thornwell	0
736	Skal Labissiere	0
737	Solomon Hill	0
738	Stephen Curry	0
739	Steve Kerr	0
740	Steve Scheffler	0
741	T.J. McConnell	0
742	Terrell Brandon	0
743	Terrence Ross	0
744	Terry Davis	0
745	Terry Dehere	0
746	Terry Porter	0
747	Terry Rozier	0
748	Thabo Sefolosha	0
749	Thaddeus Young	0
750	Tyler Cavanaugh	0
751	Tyler Dorsey	0
752	Tyler Ulis	0
753	Tyler Zeller	0
754	Tyreke Evans	0
755	Tyrone Hill	0
756	Tyus Jones	0
757	Thomas Hamilton	0
758	Thon Maker	0
759	Tim Breaux	0
760	Tim Hardaway Jr.	0
761	Timothe Luwawu-Cabarrot	0
762	TJ Leaf	0
763	Tobias Harris	0
764	Tom Gugliotta	0
765	Tom Hammonds	0
766	Tomas Satoransky	0
767	Toni Kukoc	0
768	Tony Bradley	0
769	Tony Snell	0
770	Tracy Murray	0
771	Travis Best	0
772	Trevor Ariza	0
773	Trey Burke	0
774	Tristan Thompson	0
775	Troy Daniels	0
776	Tyler Ennis	0
777	Tyler Johnson	0
778	Tyrone Wallace	0
779	Tyson Chandler	0
780	Vern Fleming	0
781	Vin Baker	0
782	Vince Carter	0
783	Vincent Hunter	0
784	Vinny Del Negro	0
785	Udonis Haslem	0
786	Vander Blue	0
787	Vernon Maxwell	0
788	Wade Baldwin IV	0
789	Wayman Tisdale	0
790	Wesley Johnson	0
791	Wesley Matthews	0
792	Willie Anderson	0
793	Willie Burton	0
794	Victor Oladipo	0
795	Vincent Askew	0
796	Vlade Divac	0
797	Voshon Lenard	0
798	Willie Cauley-Stein	0
799	Walter Lemon Jr.	0
800	Wayne Ellington	0
801	Wayne Selden	0
802	Wes Iwundu	0
803	Wesley Person	0
804	Will Barton	0
805	Willy Hernangomez	0
806	Wilson Chandler	0
807	Zach Collins	0
808	Zaza Pachulia	0
809	Willie Reed	0
810	Xavier Munford	0
811	Xavier Rathan-Mayes	0
812	Xavier Silas	0
813	Yinka Dare	0
814	Yogi Ferrell	0
815	Zach LaVine	0
816	Zach Randolph	0
817	Zan Tabak	0
818	Zhou Qi	0
